192.168.10.100:5555|1|HMA
192.168.10.107:5555|2|HMA
192.168.10.109:5555|3|HMA
192.168.10.106:5555|4|HMA
192.168.10.108:5555|5|HMA
192.168.10.104:5555|6|PVA
192.168.10.110:5555|7|PVA
192.168.10.101:5555|10|PVA
192.168.10.102:5555|11|PVA
192.168.10.117:5555|12|PVA
192.168.10.118:5555|13|PVA
192.168.10.119:5555|14|PVA
192.168.10.120:5555|15|PVA
192.168.10.122:5555|16|PVA